{
    "/assets/js/main.js": "/assets/js/main.js?id=5a18f8bc8828c5e556ef",
    "/assets/js/painel.js": "/assets/js/painel.js?id=b91fcf2d9c5a50d0367d",
    "/assets/css/painel.css": "/assets/css/painel.css?id=5a2136125e4e0d7629dc",
    "/assets/css/main.css": "/assets/css/main.css?id=1d73c65a125e12dea536"
}
