<?xml version="1.0" encoding="UTF-8"?>
<!DOCTYPE svg PUBLIC "-//W3C//DTD SVG 1.1//EN" "http://www.w3.org/Graphics/SVG/1.1/DTD/svg11.dtd">
<!-- Creator: CorelDRAW 2018 (64 Bit) -->
<svg xmlns="http://www.w3.org/2000/svg" xml:space="preserve" width="28.235mm" height="28.235mm" version="1.1" style="shape-rendering:geometricPrecision; text-rendering:geometricPrecision; image-rendering:optimizeQuality; fill-rule:evenodd; clip-rule:evenodd"
viewBox="0 0 114.42 114.42"
 xmlns:xlink="http://www.w3.org/1999/xlink">
 <defs>
  <style type="text/css">
   <![CDATA[
    .fil0 {fill:#F58634;fill-rule:nonzero}
   ]]>
  </style>
 </defs>
 <g id="Camada_x0020_1">
  <metadata id="CorelCorpID_0Corel-Layer"/>
  <g id="_1740358172448">
   <path class="fil0" d="M57.21 0c-31.55,0 -57.21,25.67 -57.21,57.21 0,31.55 25.67,57.21 57.21,57.21 31.55,0 57.21,-25.67 57.21,-57.21 0,-31.55 -25.67,-57.21 -57.21,-57.21zm0 102.38c-24.9,0 -45.17,-20.26 -45.17,-45.17 0,-24.9 20.26,-45.17 45.17,-45.17 24.9,0 45.17,20.26 45.17,45.17 0,24.9 -20.26,45.17 -45.17,45.17z"/>
   <path class="fil0" d="M87.92 55.44l-22.34 0c-0.81,-1.32 -1.93,-2.44 -3.25,-3.25l0 -26.86c0,-2.83 -2.29,-5.12 -5.12,-5.12 -2.83,0 -5.12,2.29 -5.12,5.12l0 26.86c-2.81,1.73 -4.7,4.83 -4.7,8.37 0,5.41 4.4,9.81 9.81,9.81 3.54,0 6.64,-1.88 8.37,-4.7l22.34 0c2.83,0 5.12,-2.29 5.12,-5.12 0,-2.83 -2.29,-5.12 -5.12,-5.12z"/>
  </g>
 </g>
</svg>
